{
  "forge_marker": 1,
  "defaults": {
    "model": "portality:controller"
  },
  "variants": {
    "normal": [
      {}
    ],
    "inventory": [
      {}
    ],
    "facing": {
      "north": {},
      "south": {
        "y": 180
      },
      "west": {
        "y": 270
      },
      "east": {
        "y": 90
      },
      "up": {
        "x": -90
      },
      "down": {
        "x": 90
      }
    }
  }
}