{
  "forge_marker": 1,
  "defaults": {
    "model": "portality:module_fluids_input"
  },
  "variants": {
    "normal": [
      {}
    ],
    "inventory": [
      {}
    ],
    "input": {
      "true": {
        "model": "portality:module_fluids_input"
      },
      "false": {
        "model": "portality:module_fluids_output"
      }
    }
  }
}